%YAML 1.1
%TAG !u! tag:unity3d.com,2011:
--- !u!21 &2100000
Material:
  serializedVersion: 6
  m_ObjectHideFlags: 0
  m_CorrespondingSourceObject: {fileID: 0}
  m_PrefabInstance: {fileID: 0}
  m_PrefabAsset: {fileID: 0}
  m_Name: Sea
  m_Shader: {fileID: 4800000, guid: e9170d50833194e40b4d18d98452c15f, type: 3}
  m_ShaderKeywords: 
  m_LightmapFlags: 4
  m_EnableInstancingVariants: 0
  m_DoubleSidedGI: 0
  m_CustomRenderQueue: -1
  stringTagMap: {}
  disabledShaderPasses: []
  m_SavedProperties:
    serializedVersion: 3
    m_TexEnvs:
    - _Foam:
        m_Texture: {fileID: 2800000, guid: a92b6664d2ca8d244a6aaa0aada2cc9b, type: 3}
        m_Scale: {x: 10, y: 10}
        m_Offset: {x: 0, y: 0}
    - _MainTex:
        m_Texture: {fileID: 0}
        m_Scale: {x: 1, y: 1}
        m_Offset: {x: 0, y: 0}
    - _Wave1:
        m_Texture: {fileID: 2800000, guid: ed1c8fbf93f183f42a4843a1cc3b3695, type: 3}
        m_Scale: {x: 0.3, y: 0.5}
        m_Offset: {x: 0, y: 0}
    - _Wave2:
        m_Texture: {fileID: 2800000, guid: e8c53bbc0d75c8e46be5ddcc1210ec52, type: 3}
        m_Scale: {x: 1, y: 1}
        m_Offset: {x: 0, y: 0}
    m_Floats:
    - _Bias: -1
    - _DepthTransperent: 0.28571427
    - _Distortion: 350
    - _DistortionVert: 10
    - _EdgeDistortion: 0.2
    - _FPOW: 5
    - _FadeBlend: 10
    - _FadeBlend2: 0.76
    - _FadeDepth: 0.15
    - _FoamIntensity: 0
    - _OffsetFresnel: 0.3
    - _Power: 1.5
    - _R0: 0.9
    - _ReflectionBrightness: 0.3392857
    - _RipplesScale: 20
    - _Scale: 12
    - _TexturesScale: 20
    - _WaveScale: 1
    m_Colors:
    - _Color: {r: 0.88235295, g: 0.98039216, b: 1, a: 1}
    - _Direction: {r: 0.05, g: 0.3, b: 15, a: -3}
    - _FadeColor: {r: 0.49019608, g: 0.80784315, b: 0.9098039, a: 1}
    - _FoamDirection: {r: 0, g: 5, b: -1, a: -1}
    - _GAmplitude: {r: 0.07, g: 0.08, b: 0.04, a: 0.06}
    - _GDirectionAB: {r: 0.4, g: -0.2, b: 0.3, a: 0.25}
    - _GDirectionCD: {r: 0.1, g: 2, b: 0.3, a: 0.5}
    - _GFrequency: {r: 5, g: -3, b: 1, a: 0.8}
    - _GSpeed: {r: 2, g: 2, b: 2, a: -2}
    - _GSteepness: {r: 0.13, g: -1.05, b: 0.05, a: 0.97}
    - _GlareColor: {r: 0.09803922, g: 0.105882354, b: 0.11764706, a: 1}
    - _ReflectionColor: {r: 0.3529412, g: 0.3529412, b: 0.3529412, a: 1}
